mipstest.vcd
$date
	Sun Feb 23 22:57:32 2014
$end
$version
	Icarus Verilog
$end
$timescale
	1s
$end
$scope module mips_testbench $end
$var wire 12 ! chip_data [11:0] $end
$var wire 1 " chip_data_enable $end
$var wire 1 # chip_hsync $end
$var wire 1 $ chip_reset $end
$var wire 1 % chip_vsync $end
$var wire 4 & leds [3:0] $end
$var wire 1 ' scl $end
$var wire 1 ( sda $end
$var wire 1 ) xclk $end
$var wire 1 * xclk_n $end
$var reg 1 + clk $end
$var reg 1 , play $end
$var reg 1 - rst $end
$scope module dut $end
$var wire 8 . b [7:0] $end
$var wire 8 / b_cb [7:0] $end
$var wire 1 0 bottom_btn $end
$var wire 1 1 center_btn $end
$var wire 12 2 chip_data [11:0] $end
$var wire 1 " chip_data_enable $end
$var wire 1 # chip_hsync $end
$var wire 1 $ chip_reset $end
$var wire 1 % chip_vsync $end
$var wire 1 3 clk $end
$var wire 1 4 clk_half $end
$var wire 1 5 debug_select $end
$var wire 14 6 display_data [13:0] $end
$var wire 1 7 display_we $end
$var wire 8 8 g [7:0] $end
$var wire 8 9 g_cb [7:0] $end
$var wire 27 : led_counter [26:0] $end
$var wire 4 ; leds [3:0] $end
$var wire 1 < left_btn $end
$var wire 1 = memclk $end
$var wire 1 > mipsclk $end
$var wire 8 ? r [7:0] $end
$var wire 8 @ r_cb [7:0] $end
$var wire 1 A right_btn $end
$var wire 1 B rst $end
$var wire 1 C run $end
$var wire 1 D run_toggle $end
$var wire 1 ' scl $end
$var wire 1 ( sda $end
$var wire 1 E step $end
$var wire 8 F sw [7:0] $end
$var wire 1 G top_btn $end
$var wire 1 H trap $end
$var wire 8 I v_b [7:0] $end
$var wire 8 J v_g [7:0] $end
$var wire 8 K v_r [7:0] $end
$var wire 6 L vga_rgb [5:0] $end
$var wire 11 M x [10:0] $end
$var wire 1 ) xclk $end
$var wire 1 * xclk_n $end
$var wire 10 N y [9:0] $end
$scope module run_button_unit $end
$var wire 1 O button_debounced $end
$var wire 1 P button_sync $end
$var wire 1 3 clk $end
$var wire 1 Q in $end
$var wire 1 D out $end
$var wire 1 B rst $end
$scope module sync $end
$var wire 1 3 clk $end
$var wire 1 R ff1_out $end
$var wire 1 S ff2_out $end
$var wire 1 Q in $end
$var wire 1 P out $end
$scope module ff1 $end
$var wire 1 3 clk $end
$var wire 1 Q d $end
$var reg 1 T q $end
$upscope $end
$scope module ff2 $end
$var wire 1 3 clk $end
$var wire 1 R d $end
$var reg 1 U q $end
$upscope $end
$scope module ff3 $end
$var wire 1 3 clk $end
$var wire 1 S d $end
$var reg 1 V q $end
$upscope $end
$upscope $end
$scope module debounce $end
$var wire 1 3 clk $end
$var wire 20 W counter_out [19:0] $end
$var wire 2 X current_state_q [1:0] $end
$var wire 1 Y en $end
$var wire 1 P in $end
$var wire 1 B rst $end
$var reg 1 Z counter_enable $end
$var reg 1 [ counter_reset $end
$var reg 2 \ next_state_d [1:0] $end
$var reg 1 ] out $end
$scope module counter $end
$var wire 1 3 clk $end
$var wire 20 ^ d [19:0] $end
$var wire 1 _ en $end
$var wire 1 ` r $end
$var reg 20 a q [19:0] $end
$upscope $end
$scope module state $end
$var wire 1 3 clk $end
$var wire 2 b d [1:0] $end
$var wire 1 Y en $end
$var wire 1 B r $end
$var reg 2 c q [1:0] $end
$upscope $end
$upscope $end
$scope module one_pulse $end
$var wire 1 3 clk $end
$var wire 1 O in $end
$var wire 1 d last_value $end
$var wire 1 D out $end
$var wire 1 B rst $end
$scope module last_value_storage $end
$var wire 1 3 clk $end
$var wire 1 O d $end
$var wire 1 B r $end
$var reg 1 e q $end
$upscope $end
$upscope $end
$upscope $end
$scope module step_button_unit $end
$var wire 1 f button_debounced $end
$var wire 1 g button_sync $end
$var wire 1 3 clk $end
$var wire 1 h in $end
$var wire 1 E out $end
$var wire 1 B rst $end
$scope module sync $end
$var wire 1 3 clk $end
$var wire 1 i ff1_out $end
$var wire 1 j ff2_out $end
$var wire 1 h in $end
$var wire 1 g out $end
$scope module ff1 $end
$var wire 1 3 clk $end
$var wire 1 h d $end
$var reg 1 k q $end
$upscope $end
$scope module ff2 $end
$var wire 1 3 clk $end
$var wire 1 i d $end
$var reg 1 l q $end
$upscope $end
$scope module ff3 $end
$var wire 1 3 clk $end
$var wire 1 j d $end
$var reg 1 m q $end
$upscope $end
$upscope $end
$scope module debounce $end
$var wire 1 3 clk $end
$var wire 20 n counter_out [19:0] $end
$var wire 2 o current_state_q [1:0] $end
$var wire 1 p en $end
$var wire 1 g in $end
$var wire 1 B rst $end
$var reg 1 q counter_enable $end
$var reg 1 r counter_reset $end
$var reg 2 s next_state_d [1:0] $end
$var reg 1 t out $end
$scope module counter $end
$var wire 1 3 clk $end
$var wire 20 u d [19:0] $end
$var wire 1 v en $end
$var wire 1 w r $end
$var reg 20 x q [19:0] $end
$upscope $end
$scope module state $end
$var wire 1 3 clk $end
$var wire 2 y d [1:0] $end
$var wire 1 p en $end
$var wire 1 B r $end
$var reg 2 z q [1:0] $end
$upscope $end
$upscope $end
$scope module one_pulse $end
$var wire 1 3 clk $end
$var wire 1 f in $end
$var wire 1 { last_value $end
$var wire 1 E out $end
$var wire 1 B rst $end
$scope module last_value_storage $end
$var wire 1 3 clk $end
$var wire 1 f d $end
$var wire 1 B r $end
$var reg 1 | q $end
$upscope $end
$upscope $end
$upscope $end
$scope module trap_button_unit $end
$var wire 1 } button_debounced $end
$var wire 1 ~ button_sync $end
$var wire 1 3 clk $end
$var wire 1 !" in $end
$var wire 1 H out $end
$var wire 1 B rst $end
$scope module sync $end
$var wire 1 3 clk $end
$var wire 1 "" ff1_out $end
$var wire 1 #" ff2_out $end
$var wire 1 !" in $end
$var wire 1 ~ out $end
$scope module ff1 $end
$var wire 1 3 clk $end
$var wire 1 !" d $end
$var reg 1 $" q $end
$upscope $end
$scope module ff2 $end
$var wire 1 3 clk $end
$var wire 1 "" d $end
$var reg 1 %" q $end
$upscope $end
$scope module ff3 $end
$var wire 1 3 clk $end
$var wire 1 #" d $end
$var reg 1 &" q $end
$upscope $end
$upscope $end
$scope module debounce $end
$var wire 1 3 clk $end
$var wire 20 '" counter_out [19:0] $end
$var wire 2 (" current_state_q [1:0] $end
$var wire 1 )" en $end
$var wire 1 ~ in $end
$var wire 1 B rst $end
$var reg 1 *" counter_enable $end
$var reg 1 +" counter_reset $end
$var reg 2 ," next_state_d [1:0] $end
$var reg 1 -" out $end
$scope module counter $end
$var wire 1 3 clk $end
$var wire 20 ." d [19:0] $end
$var wire 1 /" en $end
$var wire 1 0" r $end
$var reg 20 1" q [19:0] $end
$upscope $end
$scope module state $end
$var wire 1 3 clk $end
$var wire 2 2" d [1:0] $end
$var wire 1 )" en $end
$var wire 1 B r $end
$var reg 2 3" q [1:0] $end
$upscope $end
$upscope $end
$scope module one_pulse $end
$var wire 1 3 clk $end
$var wire 1 } in $end
$var wire 1 4" last_value $end
$var wire 1 H out $end
$var wire 1 B rst $end
$scope module last_value_storage $end
$var wire 1 3 clk $end
$var wire 1 } d $end
$var wire 1 B r $end
$var reg 1 5" q $end
$upscope $end
$upscope $end
$upscope $end
$scope module run_dff $end
$var wire 1 3 clk $end
$var wire 1 6" d $end
$var wire 1 B r $end
$var reg 1 7" q $end
$upscope $end
$scope module clk_div $end
$var wire 1 3 clk $end
$var wire 1 8" d $end
$var wire 1 9" r $end
$var reg 1 :" q $end
$upscope $end
$scope module cpu $end
$var wire 32 ;" alu_op_x_ex [31:0] $end
$var wire 32 <" alu_op_x_id [31:0] $end
$var wire 32 =" alu_op_y_ex [31:0] $end
$var wire 32 >" alu_op_y_id [31:0] $end
$var wire 4 ?" alu_opcode_ex [3:0] $end
$var wire 4 @" alu_opcode_id [3:0] $end
$var wire 1 A" alu_overflow $end
$var wire 32 B" alu_result_ex [31:0] $end
$var wire 32 C" alu_result_mem [31:0] $end
$var wire 1 > clk $end
$var wire 32 D" controller_data [31:0] $end
$var wire 14 E" display_data [13:0] $end
$var wire 1 7 display_we $end
$var wire 1 F" en $end
$var wire 1 G" en_if $end
$var wire 32 H" instr_id [31:0] $end
$var wire 32 I" instr_if [31:0] $end
$var wire 32 J" jr_pc_id [31:0] $end
$var wire 1 K" jump_branch_id $end
$var wire 1 L" jump_reg_id $end
$var wire 1 M" jump_target_id $end
$var wire 32 N" mem_out [31:0] $end
$var wire 1 O" mem_read_ex $end
$var wire 1 P" mem_read_id $end
$var wire 1 Q" mem_read_mem $end
$var wire 1 R" mem_we_ex $end
$var wire 1 S" mem_we_id $end
$var wire 1 T" mem_we_mem $end
$var wire 32 U" mem_write_data_ex [31:0] $end
$var wire 32 V" mem_write_data_id [31:0] $end
$var wire 32 W" mem_write_data_mem [31:0] $end
$var wire 1 = memclk $end
$var wire 6 X" op [5:0] $end
$var wire 6 Y" op_prev [5:0] $end
$var wire 32 Z" pc_id [31:0] $end
$var wire 32 [" pc_if [31:0] $end
$var wire 1 \" reg_we_ex $end
$var wire 1 ]" reg_we_id $end
$var wire 1 ^" reg_we_mem $end
$var wire 1 _" reg_we_wb $end
$var wire 5 `" reg_write_addr_ex [4:0] $end
$var wire 5 a" reg_write_addr_id [4:0] $end
$var wire 5 b" reg_write_addr_mem [4:0] $end
$var wire 5 c" reg_write_addr_wb [4:0] $end
$var wire 32 d" reg_write_data_mem [31:0] $end
$var wire 32 e" reg_write_data_wb [31:0] $end
$var wire 5 f" rs_addr_id [4:0] $end
$var wire 32 g" rs_data_id [31:0] $end
$var wire 1 h" rst $end
$var wire 1 i" rst_id $end
$var wire 5 j" rt_addr_id [4:0] $end
$var wire 32 k" rt_data_id [31:0] $end
$var wire 1 l" stall $end
$var wire 1 H trap $end
$scope module if_stage $end
$var wire 32 m" b_addr [31:0] $end
$var wire 1 > clk $end
$var wire 1 G" en $end
$var wire 32 n" instr [31:0] $end
$var wire 32 o" j_addr [31:0] $end
$var wire 32 p" jr_pc [31:0] $end
$var wire 1 K" jump_branch $end
$var wire 1 L" jump_reg $end
$var wire 1 M" jump_target $end
$var wire 1 = memclk $end
$var wire 32 q" pc [31:0] $end
$var wire 32 r" pc_id [31:0] $end
$var wire 32 s" pc_id_p4 [31:0] $end
$var wire 1 h" rst $end
$var wire 26 t" target_id [25:0] $end
$var wire 1 u" trap $end
$var wire 32 v" trap_pc [31:0] $end
$var reg 32 w" pc_next [31:0] $end
$scope module pc_reg $end
$var wire 1 > clk $end
$var wire 32 x" d [31:0] $end
$var wire 1 G" en $end
$var wire 1 h" r $end
$var reg 32 y" q [31:0] $end
$upscope $end
$scope module instr_rom $end
$var wire 9 z" addr [8:0] $end
$var wire 32 {" dout [31:0] $end
$upscope $end
$upscope $end
$scope module pc_if2id $end
$var wire 1 > clk $end
$var wire 32 |" d [31:0] $end
$var wire 1 G" en $end
$var wire 1 h" r $end
$var reg 32 }" q [31:0] $end
$upscope $end
$scope module instr_if2id $end
$var wire 1 > clk $end
$var wire 32 ~" d [31:0] $end
$var wire 1 G" en $end
$var wire 1 h" r $end
$var reg 32 !# q [31:0] $end
$upscope $end
$scope module d_stage $end
$var wire 32 "# alu_op_x [31:0] $end
$var wire 32 ## alu_op_x_initial [31:0] $end
$var wire 32 $# alu_op_x_temp [31:0] $end
$var wire 32 %# alu_op_y [31:0] $end
$var wire 32 &# alu_op_y_initial [31:0] $end
$var wire 32 '# alu_op_y_temp [31:0] $end
$var wire 32 (# forwarded_data_alu [31:0] $end
$var wire 32 )# forwarded_data_mem [31:0] $end
$var wire 5 *# forwarded_reg_addr_alu [4:0] $end
$var wire 5 +# forwarded_reg_addr_mem [4:0] $end
$var wire 6 ,# funct [5:0] $end
$var wire 32 -# imm_sign_extend [31:0] $end
$var wire 32 .# imm_upper [31:0] $end
$var wire 32 /# imm_zero_extend [31:0] $end
$var wire 16 0# immediate [15:0] $end
$var wire 32 1# instr [31:0] $end
$var wire 1 2# isBEQ $end
$var wire 1 3# isBGEZ $end
$var wire 1 4# isBGTZ $end
$var wire 1 5# isBLEZ $end
$var wire 1 6# isBLTZ $end
$var wire 1 7# isBNE $end
$var wire 1 8# isBranchLink $end
$var wire 1 9# isEqual $end
$var wire 1 :# isJ $end
$var wire 1 ;# isJAL $end
$var wire 1 <# isJALR $end
$var wire 1 =# isJR $end
$var wire 1 ># isLink $end
$var wire 1 ?# isNeg $end
$var wire 1 @# isPos $end
$var wire 1 A# isSLL $end
$var wire 1 B# isSLLV $end
$var wire 1 C# isSRA $end
$var wire 1 D# isSRAV $end
$var wire 1 E# isSRL $end
$var wire 1 F# isSRLV $end
$var wire 1 G# isShift $end
$var wire 1 H# isShiftImm $end
$var wire 1 I# isZero $end
$var wire 32 J# jr_pc [31:0] $end
$var wire 1 K" jump_branch $end
$var wire 1 L" jump_reg $end
$var wire 1 M" jump_target $end
$var wire 1 P" mem_read $end
$var wire 1 S" mem_we $end
$var wire 32 K# mem_write_data [31:0] $end
$var wire 6 L# op [5:0] $end
$var wire 6 M# op_out [5:0] $end
$var wire 6 N# op_prev [5:0] $end
$var wire 32 O# pc [31:0] $end
$var wire 5 P# rd_addr [4:0] $end
$var wire 1 ]" reg_we $end
$var wire 5 Q# reg_write_addr [4:0] $end
$var wire 5 R# rs_addr [4:0] $end
$var wire 32 S# rs_data [31:0] $end
$var wire 32 T# rs_data_in [31:0] $end
$var wire 5 U# rt_addr [4:0] $end
$var wire 32 V# rt_data [31:0] $end
$var wire 32 W# rt_data_in [31:0] $end
$var wire 5 X# shamt [4:0] $end
$var wire 1 Y# shift_amount $end
$var wire 1 l" stall $end
$var wire 1 Z# use_imm $end
$var reg 4 [# alu_opcode [3:0] $end
$var reg 32 \# imm [31:0] $end
$upscope $end
$scope module alu_op_x_id2ex $end
$var wire 1 h" ar $end
$var wire 1 > clk $end
$var wire 32 ]# d [31:0] $end
$var wire 1 F" en $end
$var wire 1 i" r $end
$var reg 32 ^# q [31:0] $end
$upscope $end
$scope module alu_op_y_id2ex $end
$var wire 1 h" ar $end
$var wire 1 > clk $end
$var wire 32 _# d [31:0] $end
$var wire 1 F" en $end
$var wire 1 i" r $end
$var reg 32 `# q [31:0] $end
$upscope $end
$scope module alu_opcode_id2ex $end
$var wire 1 h" ar $end
$var wire 1 > clk $end
$var wire 4 a# d [3:0] $end
$var wire 1 F" en $end
$var wire 1 i" r $end
$var reg 4 b# q [3:0] $end
$upscope $end
$scope module mem_write_data_id2ex $end
$var wire 1 h" ar $end
$var wire 1 > clk $end
$var wire 32 c# d [31:0] $end
$var wire 1 F" en $end
$var wire 1 i" r $end
$var reg 32 d# q [31:0] $end
$upscope $end
$scope module mem_we_id2ex $end
$var wire 1 h" ar $end
$var wire 1 > clk $end
$var wire 1 S" d $end
$var wire 1 F" en $end
$var wire 1 i" r $end
$var reg 1 e# q $end
$upscope $end
$scope module mem_read_id2ex $end
$var wire 1 h" ar $end
$var wire 1 > clk $end
$var wire 1 P" d $end
$var wire 1 F" en $end
$var wire 1 i" r $end
$var reg 1 f# q $end
$upscope $end
$scope module reg_write_addr_id2ex $end
$var wire 1 h" ar $end
$var wire 1 > clk $end
$var wire 5 g# d [4:0] $end
$var wire 1 F" en $end
$var wire 1 i" r $end
$var reg 5 h# q [4:0] $end
$upscope $end
$scope module reg_we_id2ex $end
$var wire 1 h" ar $end
$var wire 1 > clk $end
$var wire 1 ]" d $end
$var wire 1 F" en $end
$var wire 1 i" r $end
$var reg 1 i# q $end
$upscope $end
$scope module op_id2ex $end
$var wire 1 h" ar $end
$var wire 1 > clk $end
$var wire 6 j# d [5:0] $end
$var wire 1 F" en $end
$var wire 1 i" r $end
$var reg 6 k# q [5:0] $end
$upscope $end
$scope module x_stage $end
$var wire 1 l# add_check $end
$var wire 1 m# add_neg_over $end
$var wire 1 n# add_pos_over $end
$var wire 1 o# alu_neg $end
$var wire 32 p# alu_op_x [31:0] $end
$var wire 32 q# alu_op_x_signed [31:0] $end
$var wire 32 r# alu_op_y [31:0] $end
$var wire 32 s# alu_op_y_signed [31:0] $end
$var wire 4 t# alu_opcode [3:0] $end
$var wire 1 A" alu_overflow $end
$var wire 1 u# sub_check $end
$var wire 1 v# sub_neg_over $end
$var wire 1 w# sub_pos_over $end
$var wire 1 x# x_neg $end
$var wire 1 y# y_neg $end
$var reg 32 z# alu_result [31:0] $end
$upscope $end
$scope module alu_result_ex2mem $end
$var wire 1 > clk $end
$var wire 32 {# d [31:0] $end
$var wire 1 F" en $end
$var wire 1 h" r $end
$var reg 32 |# q [31:0] $end
$upscope $end
$scope module mem_write_data_ex2mem $end
$var wire 1 > clk $end
$var wire 32 }# d [31:0] $end
$var wire 1 F" en $end
$var wire 1 h" r $end
$var reg 32 ~# q [31:0] $end
$upscope $end
$scope module mem_read_ex2mem $end
$var wire 1 > clk $end
$var wire 1 O" d $end
$var wire 1 F" en $end
$var wire 1 h" r $end
$var reg 1 !$ q $end
$upscope $end
$scope module mem_we_ex2mem $end
$var wire 1 > clk $end
$var wire 1 R" d $end
$var wire 1 F" en $end
$var wire 1 h" r $end
$var reg 1 "$ q $end
$upscope $end
$scope module reg_write_addr_ex2mem $end
$var wire 1 > clk $end
$var wire 5 #$ d [4:0] $end
$var wire 1 F" en $end
$var wire 1 h" r $end
$var reg 5 $$ q [4:0] $end
$upscope $end
$scope module reg_we_ex2mem $end
$var wire 1 > clk $end
$var wire 1 \" d $end
$var wire 1 F" en $end
$var wire 1 h" r $end
$var reg 1 %$ q $end
$upscope $end
$scope module m_stage $end
$var wire 32 &$ address [31:0] $end
$var wire 1 = clk $end
$var wire 32 '$ controller_data [31:0] $end
$var wire 14 ($ display_data [13:0] $end
$var wire 1 7 display_we $end
$var wire 1 )$ isControllerAddr $end
$var wire 1 *$ isDisplayAddr $end
$var wire 32 +$ mem_out [31:0] $end
$var wire 32 ,$ mem_read_data [31:0] $end
$var wire 1 -$ mem_we $end
$var wire 14 .$ mem_word_addr [13:0] $end
$var wire 32 /$ mem_write_data [31:0] $end
$var wire 1 0$ we $end
$scope module dmem $end
$var wire 14 1$ addr [13:0] $end
$var wire 1 = clk $end
$var wire 32 2$ din [31:0] $end
$var wire 1 0$ we $end
$var reg 32 3$ dout [31:0] $end
$upscope $end
$upscope $end
$scope module reg_write_data_mem2wb $end
$var wire 1 > clk $end
$var wire 32 4$ d [31:0] $end
$var wire 1 F" en $end
$var wire 1 h" r $end
$var reg 32 5$ q [31:0] $end
$upscope $end
$scope module reg_write_addr_mem2wb $end
$var wire 1 > clk $end
$var wire 5 6$ d [4:0] $end
$var wire 1 F" en $end
$var wire 1 h" r $end
$var reg 5 7$ q [4:0] $end
$upscope $end
$scope module reg_we_mem2wb $end
$var wire 1 > clk $end
$var wire 1 ^" d $end
$var wire 1 F" en $end
$var wire 1 h" r $end
$var reg 1 8$ q $end
$upscope $end
$scope module w_stage $end
$var wire 1 > clk $end
$var wire 1 F" en $end
$var wire 1 = memclk $end
$var wire 1 _" reg_we $end
$var wire 5 9$ reg_write_addr [4:0] $end
$var wire 32 :$ reg_write_data [31:0] $end
$var wire 5 ;$ rs_addr [4:0] $end
$var wire 5 <$ rt_addr [4:0] $end
$var reg 32 =$ rs_data [31:0] $end
$var reg 32 >$ rt_data [31:0] $end
$upscope $end
$upscope $end
$scope module led_div $end
$var wire 1 3 clk $end
$var wire 27 ?$ d [26:0] $end
$var reg 27 @$ q [26:0] $end
$upscope $end
$scope module ctrl $end
$var wire 8 A$ b [7:0] $end
$var wire 12 B$ chip_data [11:0] $end
$var wire 1 " chip_data_enable $end
$var wire 1 # chip_hsync $end
$var wire 1 $ chip_reset $end
$var wire 1 % chip_vsync $end
$var wire 1 3 clk $end
$var wire 1 C$ en $end
$var wire 8 D$ g [7:0] $end
$var wire 8 E$ r [7:0] $end
$var wire 1 B rst $end
$var wire 1 F$ valid_data $end
$var wire 11 G$ x [10:0] $end
$var wire 1 ) xclk $end
$var wire 1 * xclk_n $end
$var wire 10 H$ y [9:0] $end
$var reg 24 I$ accum [23:0] $end
$var integer 32 J$ file [31:0] $end
$var integer 32 K$ naccum [31:0] $end
$scope module gen_sync $end
$var wire 1 3 clk $end
$var wire 1 C$ en $end
$var wire 1 # hsync $end
$var wire 1 B rst $end
$var wire 1 F$ valid_data $end
$var wire 1 L$ valid_h $end
$var wire 1 M$ valid_v $end
$var wire 1 % vsync $end
$var reg 11 N$ hsync_counter [10:0] $end
$var reg 11 O$ pixel_counter [10:0] $end
$var reg 11 P$ x [10:0] $end
$var reg 10 Q$ y [9:0] $end
$upscope $end
$scope module make_chip_data $end
$var wire 8 R$ b [7:0] $end
$var wire 1 3 clk $end
$var wire 8 S$ g [7:0] $end
$var wire 8 T$ r [7:0] $end
$var wire 1 F$ valid $end
$var reg 12 U$ chip_data [11:0] $end
$var reg 1 V$ chip_data_enable $end
$var reg 24 W$ pixel [23:0] $end
$upscope $end
$upscope $end
$scope module mips_disp $end
$var wire 6 X$ XPos [5:0] $end
$var wire 5 Y$ YPos [4:0] $end
$var wire 6 Z$ block_x_write [5:0] $end
$var wire 5 [$ block_y_write [4:0] $end
$var wire 1 > clk $end
$var wire 3 \$ color [2:0] $end
$var wire 14 ]$ display_data [13:0] $end
$var wire 3 ^$ out_color [2:0] $end
$var wire 11 _$ read_addr [10:0] $end
$var wire 1 `$ valid $end
$var wire 6 a$ vga_rgb [5:0] $end
$var wire 1 7 we $end
$var wire 11 b$ write_addr [10:0] $end
$upscope $end
$scope module i2c_controller $end
$var wire 1 3 clk $end
$var wire 1 c$ done $end
$var wire 1 B rst $end
$var wire 1 ' scl $end
$var wire 1 d$ scl_logic $end
$var wire 1 ( sda $end
$var reg 3 e$ packet_index [2:0] $end
$var reg 14 f$ scl_counter [13:0] $end
$var reg 1 g$ sda_logic $end
$var reg 28 h$ sda_shift [27:0] $end
$var reg 5 i$ state [4:0] $end
$upscope $end
$scope module tp $end
$var wire 11 j$ x [10:0] $end
$var wire 10 k$ y [9:0] $end
$var reg 8 l$ b [7:0] $end
$var reg 8 m$ g [7:0] $end
$var reg 8 n$ r [7:0] $end
$upscope $end
$upscope $end
$upscope $end
$enddefinitions $end
#0
$dumpvars
bx n$
bx m$
bx l$
bx k$
bx j$
bx i$
bx h$
xg$
bx f$
bx e$
xd$
xc$
bx b$
bx a$
1`$
bx _$
bx ^$
bx ]$
bx \$
bx [$
bx Z$
bx Y$
bx X$
bx W$
xV$
bx U$
bx T$
bx S$
bx R$
bx Q$
bx P$
bx O$
bx N$
xM$
xL$
bx K$
b10000000000000000000000000000011 J$
bx I$
bx H$
bx G$
xF$
bx E$
bx D$
1C$
bx B$
bx A$
bx @$
bx ?$
bx >$
bx =$
bx <$
bx ;$
bx :$
bx 9$
x8$
bx 7$
bx 6$
bx 5$
bx 4$
bx 3$
bx 2$
bx 1$
x0$
bx /$
bx .$
x-$
bx ,$
bx +$
x*$
x)$
bx ($
b0 '$
bx &$
x%$
bx $$
bx #$
x"$
x!$
bx ~#
bx }#
bx |#
bx {#
bx z#
xy#
xx#
xw#
xv#
xu#
bx t#
bx s#
bx r#
bx q#
bx p#
xo#
xn#
xm#
xl#
bx k#
bx j#
xi#
bx h#
bx g#
xf#
xe#
bx d#
bx c#
bx b#
b1101 a#
bx `#
bx _#
bx ^#
bx ]#
bx \#
b1101 [#
xZ#
zY#
bx X#
bx W#
bx V#
bx U#
bx T#
bx S#
bx R#
bx Q#
bx P#
bx O#
bx N#
bx M#
bx L#
bx K#
bx J#
xI#
xH#
xG#
xF#
xE#
xD#
xC#
xB#
xA#
x@#
x?#
x>#
x=#
x<#
x;#
x:#
x9#
x8#
x7#
x6#
x5#
x4#
x3#
x2#
bx 1#
bx 0#
b0xxxxxxxxxxxxxxxx /#
bx0000000000000000 .#
bx -#
bx ,#
bx +#
bx *#
bx )#
bx (#
bx '#
bx &#
bx %#
bx $#
bx ##
bx "#
bx !#
bx ~"
bx }"
bx |"
bx {"
bx z"
bx y"
bx x"
bx w"
b11111010000 v"
xu"
bx t"
bx s"
bx r"
bx q"
bx p"
bx00 o"
bx n"
bx m"
0l"
bx k"
bx j"
0i"
1h"
bx g"
bx f"
bx e"
bx d"
bx c"
bx b"
bx a"
bx `"
x_"
x^"
x]"
x\"
bx ["
bx Z"
bx Y"
bx X"
bx W"
bx V"
bx U"
xT"
xS"
xR"
xQ"
xP"
xO"
bx N"
xM"
xL"
xK"
bx J"
bx I"
bx H"
xG"
xF"
bx E"
b0 D"
bx C"
bx B"
xA"
b1101 @"
bx ?"
bx >"
bx ="
bx <"
bx ;"
x:"
19"
x8"
x7"
x6"
x5"
x4"
bx 3"
b0 2"
bx 1"
10"
0/"
bx ."
0-"
b0 ,"
1+"
0*"
1)"
bx ("
bx '"
x&"
x%"
x$"
x#"
x""
0!"
x~
0}
x|
x{
bx z
b0 y
bx x
1w
0v
bx u
0t
b0 s
1r
0q
1p
bx o
bx n
xm
xl
xk
xj
xi
0h
xg
0f
xe
xd
bx c
b0 b
bx a
1`
0_
bx ^
0]
b0 \
1[
0Z
1Y
bx X
bx W
xV
xU
xT
xS
xR
xQ
xP
0O
bx N
bx M
bx L
bx K
bx J
bx I
0H
0G
b0 F
0E
0D
xC
0B
0A
bx @
bx ?
x>
x=
x<
bx ;
bx :
bx 9
bx 8
x7
bx 6
05
x4
03
bx 2
01
00
bx /
bx .
0-
x,
0+
0*
1)
x(
x'
bx &
x%
1$
x#
x"
bx !
$end
#5
b0 a
b1 ^
b0 W
b0 c
b0 X
0e
0d
0k
0i
b0 x
b1 u
b0 n
b0 z
b0 o
0|
0{
0$"
0""
b0 1"
b1 ."
b0 '"
b0 3"
b0 ("
05"
04"
1*
0)
1+
13
#10
b0 >"
b0 %#
b0 _#
19#
b0 &#
b0 ##
0@#
b0 '#
b0 $#
0?#
b0 >$
b0 V"
b0 K#
b0 c#
b0 V#
b0 k"
b0 W#
b0 =$
b0 J"
b0 p"
b0 J#
b0 S#
1I#
b0 g"
b0 T#
b0z <"
b0z "#
b0z ]#
1G#
b0 a"
b0 Q#
b0 g#
1H#
0K"
0>#
08#
0L"
03#
1]"
06#
0M"
04#
05#
0<#
0=#
1A#
0C#
0E#
0B#
0D#
0F#
b1010 [#
b1010 @"
b1010 a#
b0 \#
b100 m"
0u"
0n#
0o#
b0 \$
b0 b$
b0 Z$
b0 [$
1=
18"
b0 z"
b100100000111010000111111111100 I"
b100100000111010000111111111100 n"
b100100000111010000111111111100 {"
b100100000111010000111111111100 ~"
b100 w"
b100 x"
02#
07#
0:#
0;#
0Z#
0S"
0P"
b0 L#
b0 X"
b0 M#
b0 j#
b0 f"
b0 R#
b0 ;$
b0 j"
b0 U#
b0 <$
b0 P#
b0 X#
b0 ,#
b0 -#
b0 /#
b0 .#
b0 0#
b0 t"
b0 o"
0v#
0x#
0m#
0w#
0y#
0A"
b0 z#
b0 B"
b0 (#
b0 {#
07
b0 .$
b0 1$
00$
b0 6
b0 E"
b0 ($
b0 ]$
b0 d"
b0 4$
0-$
0:"
04
0>
b0 y"
b0 ["
b0 q"
b0 |"
b0 }"
b100 s"
b0 Z"
b0 r"
b0 O#
b0 !#
b0 H"
b0 1#
b0 ^#
b0 q#
b0 ;"
b0 p#
b0 `#
b0 s#
b0 ="
b0 r#
b0 b#
0l#
0u#
b0 ?"
b0 t#
b0 d#
b0 U"
b0 }#
0e#
0R"
0f#
0O"
b0 h#
b0 `"
b0 *#
b0 #$
0i#
0\"
b0 k#
b0 Y"
b0 N#
b0 |#
0*$
0)$
b0 C"
b0 &$
b0 ~#
b0 W"
b0 /$
b0 2$
0!$
0Q"
0"$
0T"
b0 $$
b0 b"
b0 +#
b0 6$
0%$
0^"
b0 5$
b0 e"
b0 :$
b0 7$
b0 c"
b0 9$
08$
0_"
0*
09"
0h"
1)
1B
0+
03
1-
1G
#15
0F$
0G"
1d$
z'
b0 Y$
b0 _$
b0 X$
b11111111 l$
b11111111 /
b11111111 m$
b11111111 9
b11111111 n$
b11111111 @
0%
0M$
0L$
0F"
06"
1g$
z(
b0 h$
b0 e$
0c$
b0 i$
b0 f$
b0 Q$
b0 N
b0 H$
b0 k$
b0 P$
b0 M
b0 G$
b0 j$
b0 N$
b0 O$
0#
07"
0C
0%"
0#"
0l
0j
1*
0)
1+
13
#20
0*
19"
1h"
1)
1Q
0B
0+
03
1,
1<
0-
0G
#25
0=
08"
1T
1R
0m
0g
0&"
0~
b1 O$
1#
0V$
0"
b1110110010100100111100000010 h$
b1 f$
1:"
14
1>
1*
0)
1+
13
#30
0*
1)
0Q
0+
03
0,
0<
#35
1L$
1=
18"
b10 f$
b10 O$
1U
1S
0T
0R
0:"
04
0>
1*
0)
1+
13
#40
0*
1)
0+
03
#45
b1 \
b1 b
b0 l$
b0 /
b0 m$
b0 9
0=
08"
0U
0S
1V
1P
b11 O$
b1 P$
b1 M
b1 G$
b1 j$
b11 f$
1:"
14
1>
1*
0)
1+
13
#50
0*
1)
0+
03
#55
16"
1_
0`
1D
b0 l$
b0 /
b0 m$
b0 9
1Z
0[
1]
1O
1=
18"
b100 f$
b10 P$
b10 M
b10 G$
b10 j$
b100 O$
b1 c
b1 X
0V
0P
0:"
04
0>
1*
0)
1+
13
#60
0*
1)
0+
03
#65
0D
1G"
1F"
16"
b0 l$
b0 /
b0 m$
b0 9
0=
08"
b1 a
b10 ^
b1 W
1e
1d
17"
1C
b101 O$
b11 P$
b11 M
b11 G$
b11 j$
b101 f$
1:"
14
1>
1*
0)
1+
13
#70
0*
1)
0+
03
#75
b0 l$
b0 /
b0 m$
b0 9
1=
18"
b110 f$
b100 P$
b100 M
b100 G$
b100 j$
b110 O$
b10 a
b11 ^
b10 W
0:"
04
0>
1*
0)
1+
13
#80
0*
1)
0+
03
